time (s),IT("/IPRB0/MINUS") Ntot 7098  (A),time (s),IT("/IPRB0/MINUS") Ntot 7303  (A)
0.000000000000000,20.60758395699168E-12,0.000000000000000,20.60758395699169E-12
100.0000000000000E-12,486.7762459697474E-12,100.0000000000000E-12,486.7792631979290E-12
100.0186167065529E-12,506.0058423896551E-12,100.0186167065529E-12,505.9950570578731E-12
100.0320496877666E-12,520.6016856857866E-12,100.0320496877666E-12,520.5995226747506E-12
100.0589156501941E-12,548.6620262772681E-12,100.0589156501941E-12,548.6406455768294E-12
100.1126475750491E-12,604.5892825761572E-12,100.1126475750491E-12,604.5800208667190E-12
100.2201114247590E-12,713.6734028148336E-12,100.2201114247590E-12,713.6584534709704E-12
100.4222009686763E-12,910.3465247965208E-12,100.4222009686763E-12,910.3575826696411E-12
100.6216102068899E-12,1.093968886361841E-9,100.6216102068899E-12,1.093967567950144E-9
100.8237027859981E-12,1.270064123571033E-9,100.8237027859981E-12,1.270077820586585E-9
101.0376531412335E-12,1.446168947160397E-9,101.0376531412335E-12,1.446159320960914E-9
101.2623152213138E-12,1.620378124092495E-9,101.2623152213138E-12,1.620383232408237E-9
101.5025863200067E-12,1.795369138160539E-9,101.5025863200067E-12,1.795367620094115E-9
101.7620024969650E-12,1.972059926622290E-9,101.7620024969650E-12,1.972065359172967E-9
102.0437229076590E-12,2.150645503182941E-9,102.0437229076590E-12,2.150650998431645E-9
102.3517480881919E-12,2.331330924301859E-9,102.3517480881919E-12,2.331341860262962E-9
102.6915376450392E-12,2.514531964114872E-9,102.6915376450392E-12,2.514537142774109E-9
103.0709038835086E-12,2.700992842510769E-9,103.0709038835086E-12,2.700994535946639E-9
103.5023836180642E-12,2.892314995237499E-9,103.5023836180642E-12,2.892327789175615E-9
104.0119731898869E-12,3.093242973800017E-9,104.0119731898869E-12,3.093243974081420E-9
104.6448924106326E-12,3.310277199713380E-9,104.6448924106326E-12,3.310279189932799E-9
105.1041349885365E-12,3.447873461261847E-9,105.1041349885365E-12,3.447876313367276E-9
105.4295457698967E-12,3.536337774750174E-9,105.4295457698967E-12,3.536338764612396E-9
105.7095749134884E-12,3.607109796983504E-9,105.7095749134884E-12,3.607108522246466E-9
105.9796776406866E-12,3.671073804680410E-9,105.9796776406866E-12,3.671076365033652E-9
106.2707829922259E-12,3.735676386330717E-9,106.2707829922259E-12,3.735686684097670E-9
106.5292154841294E-12,3.789525409941598E-9,106.5292154841294E-12,3.789526863024405E-9
106.8228386721260E-12,3.846986750430416E-9,106.8228386721260E-12,3.846991924952966E-9
107.1284172913376E-12,3.902929432032578E-9,107.1284172913376E-12,3.902923073252860E-9
107.4340604996964E-12,3.955211164549848E-9,107.4340604996964E-12,3.955221948310254E-9
107.6262368910675E-12,3.986310028886492E-9,107.6262368910675E-12,3.986321341053652E-9
107.8133128647495E-12,4.015376854402789E-9,107.8133128647495E-12,4.015387045511462E-9
107.9535784875339E-12,4.036392756184375E-9,107.9535784875339E-12,4.036397027874105E-9
108.0901852058662E-12,4.056269155107434E-9,108.0901852058662E-12,4.056258207190436E-9
108.2629135648020E-12,4.080572694278087E-9,108.2629135648020E-12,4.080588322720194E-9
108.4716663437599E-12,4.108802598963971E-9,108.4716663437599E-12,4.108810208042106E-9
108.7416178353888E-12,4.143547534147957E-9,108.7416178353888E-12,4.143531858296583E-9
109.1327257435507E-12,4.190577249094089E-9,109.1327257435507E-12,4.190573545017315E-9
109.4336060580533E-12,4.224282605080348E-9,109.4336060580533E-12,4.224283625749516E-9
109.6999656871953E-12,4.252464994140681E-9,109.6999656871953E-12,4.252468381933255E-9
109.8499828435977E-12,4.267666706346433E-9,109.8499828435977E-12,4.267674564465462E-9
110.0000000000000E-12,4.282435132049311E-9,110.0000000000000E-12,4.282435864680796E-9
110.0362065986244E-12,4.285934935559266E-9,110.0362065986244E-12,4.285902622173036E-9
110.0727880995259E-12,4.289408533085357E-9,110.0727880995259E-12,4.289444806552638E-9
110.1158755965020E-12,4.293522695875464E-9,110.1158755965020E-12,4.293494722727196E-9
110.2020505904540E-12,4.301637372604966E-9,110.2020505904540E-12,4.301634975772243E-9
110.3744005783580E-12,4.317421131991868E-9,110.3744005783580E-12,4.317418899386986E-9
110.6081488354584E-12,4.338034065780644E-9,110.6081488354584E-12,4.338035906194600E-9
110.8402935347141E-12,4.357621046232086E-9,110.8402935347141E-12,4.357620612691663E-9
111.0858224391411E-12,4.377421453081965E-9,111.0858224391411E-12,4.377429305851006E-9
111.3462751173423E-12,4.397477839674961E-9,111.3462751173423E-12,4.397482432635473E-9
111.6304925497468E-12,4.418298231819225E-9,111.6304925497468E-12,4.418304569275765E-9
111.9371215481098E-12,4.439583826916056E-9,111.9371215481098E-12,4.439593137760178E-9
112.2749511571167E-12,4.461734626461189E-9,112.2749511571167E-12,4.461744793821407E-9
112.6390005001643E-12,4.484209198738288E-9,112.6390005001643E-12,4.484206250767843E-9
113.0476436403722E-12,4.507809087317504E-9,113.0476436403722E-12,4.507802860170336E-9
113.4972585260223E-12,4.531985174077816E-9,113.4972585260223E-12,4.531994457815396E-9
114.0171659268507E-12,4.557838408326805E-9,114.0171659268507E-12,4.557844232806179E-9
114.6087230597349E-12,4.584804376788782E-9,114.6087230597349E-12,4.584811903033770E-9
115.2829518725243E-12,4.612751443950147E-9,115.2829518725243E-12,4.612752342866346E-9
115.9625106992948E-12,4.638273292119942E-9,115.9625106992948E-12,4.638276339111676E-9
116.7339749188118E-12,4.664495256986249E-9,116.7339749188118E-12,4.664501814168938E-9
117.5808699027066E-12,4.690399017684494E-9,117.5808699027066E-12,4.690402183754299E-9
118.4964752004248E-12,4.715535294515179E-9,118.4964752004248E-12,4.715536663465329E-9
119.4977798622284E-12,4.740172190124194E-9,119.4977798622284E-12,4.740178422109688E-9
120.5381802011766E-12,4.763152994963503E-9,120.5381802011766E-12,4.763157432458399E-9
121.7646267889084E-12,4.787437349395068E-9,121.7646267889084E-12,4.787442181404974E-9
122.7526997888170E-12,4.805140049524407E-9,122.7526997888170E-12,4.805144592373728E-9
123.9303648670381E-12,4.824464688059188E-9,123.9303648670381E-12,4.824468605637829E-9
125.4155212864524E-12,4.846578623188600E-9,125.4155212864524E-12,4.846582481829688E-9
127.3334154480551E-12,4.872130559172899E-9,127.3334154480551E-12,4.872134347676634E-9
129.5654341399082E-12,4.898455836091999E-9,129.5654341399082E-12,4.898459612358438E-9
132.1824035321492E-12,4.925603850264306E-9,132.1824035321492E-12,4.925608128117960E-9
135.1089387279769E-12,4.952136664327341E-9,135.1089387279769E-12,4.952140849958300E-9
138.1752466479079E-12,4.976361775568314E-9,138.1752466479079E-12,4.976366403161174E-9
141.3895500794805E-12,4.998437652808644E-9,141.3895500794805E-12,4.998442323555367E-9
144.8255723330243E-12,5.018799695413652E-9,144.8255723330243E-12,5.018803347060277E-9
148.5572365052954E-12,5.037606752366707E-9,148.5572365052954E-12,5.037612456472999E-9
152.6907544725983E-12,5.054929366708715E-9,152.6907544725983E-12,5.054934840031074E-9
157.3537340946745E-12,5.070631851306283E-9,157.3537340946745E-12,5.070636902143733E-9
162.7161362144185E-12,5.084397941204601E-9,162.7161362144185E-12,5.084404183724062E-9
169.0236357872733E-12,5.095715860617652E-9,169.0236357872733E-12,5.095722083387334E-9
176.6537348694585E-12,5.103785114166980E-9,176.6537348694585E-12,5.103791722277213E-9
186.2068182365002E-12,5.107361041790934E-9,186.2068182365002E-12,5.107368898041378E-9
198.7501213546198E-12,5.104523910552353E-9,198.7501213546198E-12,5.104533160044112E-9
216.3864717511138E-12,5.092262978828020E-9,216.3864717511138E-12,5.092274703096140E-9
244.0596826048632E-12,5.066029559750727E-9,244.0596826048632E-12,5.066047333034538E-9
298.2862256226704E-12,5.021400365532282E-9,298.2862256226704E-12,5.021441855909388E-9
406.7393116582848E-12,5.002195287487948E-9,406.7393116582848E-12,5.002378371118458E-9
598.2664602753538E-12,5.141450394834322E-9,598.2664602753538E-12,5.142487753148528E-9
981.3207575094923E-12,5.540519770784926E-9,981.3207575094923E-12,5.546216684408359E-9
1.747429351977769E-9,5.493480673223251E-9,1.747429351977769E-9,5.508689275005754E-9
3.279646540914322E-9,4.623296301787096E-9,3.279646540914322E-9,4.639502566311303E-9
6.344080918787428E-9,4.054200639380546E-9,6.344080918787428E-9,4.074664440418275E-9
10.00000000000000E-9,3.420305154648834E-9,10.00000000000000E-9,3.450514561177378E-9
15.05555047221533E-9,2.409625450215982E-9,15.05555047221533E-9,2.448300197942860E-9
19.02777523610766E-9,1.653139745739123E-9,19.02777523610766E-9,1.697116515098871E-9
23.00000000000001E-9,946.8147728840321E-12,23.00000000000001E-9,994.0200413810283E-12
30.94444952778468E-9,-75.31850534836337E-12,30.94444952778468E-9,-32.84114079331023E-12
38.54609804306848E-9,-847.0368894586215E-12,38.54609804306848E-9,-813.5320870561857E-12
47.81382675137086E-9,-1.447834633511650E-9,47.81382675137086E-9,-1.430688308818359E-9
61.00000000000002E-9,-1.757832303996177E-9,61.00000000000002E-9,-1.767195246936071E-9
68.18404215199862E-9,-1.655531174403245E-9,68.18404215199862E-9,-1.677572774149011E-9
77.07828490475323E-9,-1.466287847909103E-9,77.07828490475323E-9,-1.500985669741887E-9
86.00000000000000E-9,-1.218808914182756E-9,86.00000000000000E-9,-1.261503229579479E-9
100.5951342773858E-9,-805.3603494482112E-12,100.5951342773858E-9,-846.7991450240658E-12
112.5504688903629E-9,-501.5498967845007E-12,112.5504688903629E-9,-538.3423630535134E-12
125.5951439737186E-9,-233.7023066706336E-12,125.5951439737186E-9,-261.9924121327965E-12
151.6844941404299E-9,81.82388554762055E-12,151.6844941404299E-9,72.56841471004256E-12
203.8631944738526E-9,198.3079892614030E-12,203.8631944738526E-9,209.1226302325363E-12
308.2205951406980E-9,52.15779983875922E-12,308.2205951406980E-9,59.89556826322024E-12
452.7642526872972E-9,-10.10098680564464E-12,452.7642526872972E-9,-11.61447695811549E-12
626.1161148614846E-9,13.67539215205263E-12,626.1161148614846E-9,12.39721068364842E-12
826.1161148614846E-9,23.41989788446320E-12,826.1161148614846E-9,23.56797730974364E-12
1.026116114861485E-6,21.38703561524830E-12,1.026116114861485E-6,21.52779727727590E-12
1.226116114861485E-6,20.42124939712025E-12,1.226116114861485E-6,20.41338145146107E-12
1.426116114861485E-6,20.52817640495256E-12,1.426116114861485E-6,20.51408343061492E-12
1.626116114861485E-6,20.61129748900384E-12,1.626116114861485E-6,20.61100551586144E-12
1.826116114861485E-6,20.60673360398224E-12,1.826116114861485E-6,20.60759527218332E-12
2.026116114861485E-6,20.59993813547389E-12,2.026116114861485E-6,20.59957622149501E-12
2.226116114861485E-6,20.60015047779319E-12,2.226116114861485E-6,20.59961397770643E-12
2.426116114861485E-6,20.60085561629069E-12,2.426116114861485E-6,20.60046111446258E-12
2.626116114861486E-6,20.60100343931236E-12,2.626116114861486E-6,20.60062275770283E-12
2.826116114861486E-6,20.60107932633853E-12,2.826116114861486E-6,20.60071039562484E-12
3.026116114861486E-6,20.60122449906011E-12,3.026116114861486E-6,20.60087743932094E-12
3.226116114861486E-6,20.60136326027232E-12,3.226116114861486E-6,20.60102009491120E-12
3.361558057430744E-6,20.60142915076968E-12,3.361558057430744E-6,20.60108217984163E-12
3.477250000000000E-6,20.60151369233676E-12,3.477250000000000E-6,20.60113579379963E-12
3.477750000000000E-6,20.60152281501500E-12,3.477750000000000E-6,20.60110815095069E-12
3.478750000000000E-6,20.60152060380124E-12,3.478750000000000E-6,20.60112960111220E-12
3.480749999999999E-6,20.60148586335892E-12,3.480749999999999E-6,20.60111327115570E-12
3.484749999999998E-6,20.60152431141814E-12,3.484749999999998E-6,20.60109887256377E-12
3.490874999999999E-6,20.60151495878279E-12,3.490874999999999E-6,20.60111902761575E-12
3.495250000000000E-6,20.60148151358369E-12,3.495250000000000E-6,20.60107949386342E-12
3.496265138712146E-6,20.60150473337953E-12,3.496265138712146E-6,20.60105385929279E-12
3.496507569356073E-6,20.60146676979256E-12,3.496507569356073E-6,20.60105754111946E-12
3.496750000000000E-6,20.60143332725760E-12,3.496750000000000E-6,20.60107930735923E-12
3.496875000000000E-6,20.60140326956434E-12,3.496875000000000E-6,20.60109399201066E-12
3.497000000000001E-6,20.60138988424803E-12,3.497000000000001E-6,20.60110643571929E-12
3.497000030698358E-6,20.58223907679327E-12,3.497000030698358E-6,20.49332450902553E-12
3.497000031704699E-6,20.14096888949565E-12,3.497000031704699E-6,21.00971167931003E-12
3.497000032995347E-6,21.87175772970341E-12,3.497000032995347E-6,20.95818403863429E-12
3.497000035314999E-6,20.85231458395546E-12,3.497000035314999E-6,21.70547041735098E-12
3.497000039954303E-6,21.36399481427310E-12,3.497000039954303E-6,20.94321432253564E-12
3.497000049232912E-6,21.16322807170002E-12,3.497000049232912E-6,21.37326838538577E-12
3.497000067790130E-6,21.67424826293694E-12,3.497000067790130E-6,21.64370372851638E-12
3.497000104904566E-6,22.80048349056739E-12,3.497000104904566E-6,22.77663693013419E-12
3.497000175638712E-6,26.39062603111098E-12,3.497000175638712E-6,26.24079302385081E-12
3.497000292869818E-6,36.22074381918843E-12,3.497000292869818E-6,35.87219817979575E-12
3.497000404201312E-6,50.16485518984908E-12,3.497000404201312E-6,49.51795022650504E-12
3.497000517437709E-6,68.99076453645836E-12,3.497000517437709E-6,67.90391526443616E-12
3.497000635742019E-6,93.63807558771182E-12,3.497000635742019E-6,91.99350021083963E-12
3.497000732028226E-6,117.4469412506298E-12,3.497000732028226E-6,115.3006397421434E-12
3.497000843859052E-6,149.3402387426299E-12,3.497000843859052E-6,146.4659320654044E-12
3.497000923242592E-6,174.7844159113107E-12,3.497000923242592E-6,171.3515409402087E-12
3.497001004718278E-6,203.2693000295922E-12,3.497001004718278E-6,199.2454555443334E-12
3.497001082360377E-6,232.7564557700131E-12,3.497001082360377E-6,228.0413483228644E-12
3.497001161665824E-6,265.0940063508118E-12,3.497001161665824E-6,259.6782014685667E-12
3.497001245336835E-6,301.7958759122037E-12,3.497001245336835E-6,295.5538162279123E-12
3.497001328176353E-6,340.6829576452970E-12,3.497001328176353E-6,333.5584104923419E-12
3.497001427888634E-6,390.7866501352024E-12,3.497001427888634E-6,382.5569254577988E-12
3.497001526675126E-6,444.0894211907734E-12,3.497001526675126E-6,434.7110128781164E-12
3.497001693014286E-6,542.0734484237040E-12,3.497001693014286E-6,530.5006747378853E-12
3.497001876733501E-6,662.2373450566220E-12,3.497001876733501E-6,647.9960840876392E-12
3.497002073925678E-6,805.2264554528350E-12,3.497002073925678E-6,787.7963453739581E-12
3.497002288611938E-6,977.4066690411216E-12,3.497002288611938E-6,956.1399727727510E-12
3.497002521928054E-6,1.184065911078619E-9,3.497002521928054E-6,1.158220172942752E-9
3.497002779521033E-6,1.435893200601977E-9,3.497002779521033E-6,1.404456276740681E-9
3.497003067322996E-6,1.746662175306291E-9,3.497003067322996E-6,1.708320677049530E-9
3.497003391247518E-6,2.133529533971358E-9,3.497003391247518E-6,2.086587728698087E-9
3.497003757127605E-6,2.617731280927789E-9,3.497003757127605E-6,2.560043676959972E-9
3.497004151418514E-6,3.195523061542560E-9,3.497004151418514E-6,3.124994454457269E-9
3.497004573032841E-6,3.877475255404951E-9,3.497004573032841E-6,3.791794392745697E-9
3.497005024467208E-6,4.680849522831538E-9,3.497005024467208E-6,4.577323156512790E-9
3.497005510459472E-6,5.629962534497645E-9,3.497005510459472E-6,5.505350963857726E-9
3.497006046647540E-6,6.777853121840635E-9,3.497006046647540E-6,6.627747056685208E-9
3.497006691054461E-6,8.296218099874094E-9,3.497006691054461E-6,8.112376207553368E-9
3.497007446092355E-6,10.26613958465005E-9,3.497007446092355E-6,10.03853319076558E-9
3.497008009383428E-6,11.86874022631215E-9,3.497008009383428E-6,11.60553090240547E-9
3.497008481277313E-6,13.29794511100608E-9,3.497008481277313E-6,13.00298323181944E-9
3.497008913187305E-6,14.67466560566627E-9,3.497008913187305E-6,14.34911253305985E-9
3.497009302877811E-6,15.97262124797673E-9,3.497009302877811E-6,15.61823542164847E-9
3.497009667349811E-6,17.23413482004712E-9,3.497009667349811E-6,16.85172357846954E-9
3.497010016661676E-6,18.48599816209556E-9,3.497010016661676E-6,18.07578303490009E-9
3.497010356996721E-6,19.74571674962713E-9,3.497010356996721E-6,19.30750353844608E-9
3.497010695020354E-6,21.03570647389156E-9,3.497010695020354E-6,20.56883099752176E-9
3.497011036732654E-6,22.37881953536163E-9,3.497011036732654E-6,21.88211550921010E-9
3.497011354867353E-6,23.66433743033155E-9,3.497011354867353E-6,23.13905888609723E-9
3.497011734641070E-6,25.24284116308593E-9,3.497011734641070E-6,24.68249398163038E-9
3.497012211637141E-6,27.29258371339368E-9,3.497012211637141E-6,26.68669547199219E-9
3.497012791488070E-6,29.88391972006001E-9,3.497012791488070E-6,29.22045949696495E-9
3.497013387382012E-6,32.65953992023117E-9,3.497013387382012E-6,31.93441558258037E-9
3.497013870620817E-6,34.99332110088489E-9,3.497013870620817E-6,34.21634105243488E-9
3.497014345196624E-6,37.35670192666284E-9,3.497014345196624E-6,36.52721126011861E-9
3.497014790787076E-6,39.63949619624430E-9,3.497014790787076E-6,38.75928796700663E-9
3.497015257178059E-6,42.09429235335024E-9,3.497015257178059E-6,41.15953462110097E-9
3.497015728763597E-6,44.64376671903738E-9,3.497015728763597E-6,43.65236903843656E-9
3.497016216666619E-6,47.35195972660598E-9,3.497016216666619E-6,46.30038941248658E-9
3.497016757070060E-6,50.43427160622894E-9,3.497016757070060E-6,49.31421801017044E-9
3.497017355375109E-6,53.94697198102792E-9,3.497017355375109E-6,52.74886685830191E-9
3.497018018704801E-6,57.96274281752752E-9,3.497018018704801E-6,56.67541084956982E-9
3.497018757022642E-6,62.58016677601175E-9,3.497018757022642E-6,61.19024092443694E-9
3.497019582650077E-6,67.92473058736468E-9,3.497019582650077E-6,66.41605212663182E-9
3.497020438383761E-6,73.66230029044678E-9,3.497020438383761E-6,72.02614024270006E-9
3.497021321804030E-6,79.79294636588586E-9,3.497021321804030E-6,78.02056746373411E-9
3.497022314435467E-6,86.92749519160055E-9,3.497022314435467E-6,84.99658883691043E-9
3.497023552482715E-6,96.18161011354012E-9,3.497023552482715E-6,94.04508264432462E-9
3.497024539145753E-6,103.8331104543161E-9,3.497024539145753E-6,101.5265703195433E-9
3.497025435297642E-6,110.9902768219068E-9,3.497025435297642E-6,108.5247076786743E-9
3.497026317623837E-6,118.2257825691018E-9,3.497026317623837E-6,115.5994468031391E-9
3.497027160903017E-6,125.3125197120746E-9,3.497027160903017E-6,122.5287165089705E-9
3.497027987206708E-6,132.4158647332070E-9,3.497027987206708E-6,129.4742348727562E-9
3.497028832650484E-6,139.8436650656688E-9,3.497028832650484E-6,136.7369950640077E-9
3.497029766544750E-6,148.2326455388069E-9,3.497029766544750E-6,144.9395791369704E-9
3.497030444121742E-6,154.4381139298726E-9,3.497030444121742E-6,151.0071691627852E-9
3.497031122682022E-6,160.7509960296117E-9,3.497031122682022E-6,157.1797866064549E-9
3.497032005184084E-6,169.1056462597922E-9,3.497032005184084E-6,165.3488095058540E-9
3.497032905063457E-6,177.7897896935920E-9,3.497032905063457E-6,173.8400053235840E-9
3.497033851352858E-6,187.0977857398295E-9,3.497033851352858E-6,182.9411926474457E-9
3.497034848729576E-6,197.0993074984923E-9,3.497034848729576E-6,192.7205020926167E-9
3.497035934241882E-6,208.2022028161131E-9,3.497035934241882E-6,203.5767187174620E-9
3.497036895771592E-6,218.2160957916414E-9,3.497036895771592E-6,213.3680960313958E-9
3.497037729300191E-6,227.0398388571871E-9,3.497037729300191E-6,221.9957722502860E-9
3.497039039392024E-6,241.1577349240414E-9,3.497039039392024E-6,235.8000137406569E-9
3.497040328525815E-6,255.3436063873731E-9,3.497040328525815E-6,249.6707291331772E-9
3.497041562979509E-6,269.1930474046114E-9,3.497041562979509E-6,263.2125017542385E-9
3.497042729239034E-6,282.5092861539164E-9,3.497042729239034E-6,276.2329213656338E-9
3.497043787889786E-6,294.7868997680992E-9,3.497043787889786E-6,288.2378010204805E-9
3.497044762263534E-6,306.2400854710549E-9,3.497044762263534E-6,299.4365928078585E-9
3.497045699504403E-6,317.3967772001929E-9,3.497045699504403E-6,310.3454469225153E-9
3.497046699758639E-6,329.4485299760620E-9,3.497046699758639E-6,322.1295132447576E-9
3.497047343527034E-6,337.2836628515722E-9,3.497047343527034E-6,329.7906153111741E-9
3.497048120957607E-6,346.8257980218677E-9,3.497048120957607E-6,339.1208138796662E-9
3.497048797371111E-6,355.1983313656125E-9,3.497048797371111E-6,347.3073899962209E-9
3.497049343421976E-6,362.0042832797747E-9,3.497049343421976E-6,353.9621840976743E-9
3.497049832542970E-6,368.1358639181145E-9,3.497049832542970E-6,359.9575862670970E-9
3.497050277452632E-6,373.7417739269864E-9,3.497050277452632E-6,365.4389896740390E-9
3.497050688843249E-6,378.9461047661141E-9,3.497050688843249E-6,370.5277857776275E-9
3.497051076786777E-6,383.8789637771949E-9,3.497051076786777E-6,375.3510488854823E-9
3.497051446022305E-6,388.5902024874781E-9,3.497051446022305E-6,379.9576662119149E-9
3.497051799707424E-6,393.1204897071828E-9,3.497051799707424E-6,384.3873443200159E-9
3.497052140271398E-6,397.4982981690019E-9,3.497052140271398E-6,388.6679380606114E-9
3.497052469619454E-6,401.7463749232461E-9,3.497052469619454E-6,392.8216815960809E-9
3.497052789141804E-6,405.8811830929600E-9,3.497052789141804E-6,396.8646695147082E-9
3.497053101343734E-6,409.9339790391293E-9,3.497053101343734E-6,400.8274805620412E-9
3.497053408761817E-6,413.9368827218042E-9,3.497053408761817E-6,404.7414786700388E-9
3.497053714129435E-6,417.9249613839638E-9,3.497053714129435E-6,408.6410067728049E-9
3.497054026834804E-6,422.0210794185005E-9,3.497054026834804E-6,412.6461521145300E-9
3.497054206970276E-6,424.3862290785948E-9,3.497054206970276E-6,414.9588023761670E-9
3.497054318383692E-6,425.8511201123030E-9,3.497054318383692E-6,416.3911452806722E-9
3.497054427188190E-6,427.2831801896154E-9,3.497054427188190E-6,417.7914394133167E-9
3.497054644797186E-6,430.1517153128886E-9,3.497054644797186E-6,420.5962731999945E-9
3.497054928010218E-6,433.8938191211037E-9,3.497054928010218E-6,424.2552779160540E-9
3.497055144002767E-6,436.7543582589886E-9,3.497055144002767E-6,427.0522982053991E-9
3.497055352115106E-6,439.5159185501103E-9,3.497055352115106E-6,429.7525399619897E-9
3.497055611608338E-6,442.9666731448440E-9,3.497055611608338E-6,433.1266640184469E-9
3.497055948278729E-6,447.4558465513792E-9,3.497055948278729E-6,437.5161766265505E-9
3.497056227923460E-6,451.1903707441140E-9,3.497056227923460E-6,441.1678493518453E-9
3.497056713333561E-6,457.7059741056372E-9,3.497056713333561E-6,447.5387020061424E-9
3.497057223441177E-6,464.5774578209440E-9,3.497057223441177E-6,454.2576474849326E-9
3.497057762352589E-6,471.8713923924408E-9,3.497057762352589E-6,461.3896507508576E-9
3.497058427835115E-6,480.9247983089456E-9,3.497058427835115E-6,470.2420583343826E-9
3.497059141471939E-6,490.6894403378976E-9,3.497059141471939E-6,479.7899265131274E-9
3.497059879414677E-6,500.8468114238252E-9,3.497059879414677E-6,489.7218156561634E-9
3.497060648925341E-6,511.5027803063599E-9,3.497060648925341E-6,500.1412365143010E-9
3.497061439178212E-6,522.5129371972002E-9,3.497061439178212E-6,510.9069997480068E-9
3.497062239794823E-6,533.7355011328954E-9,3.497062239794823E-6,521.8804636470296E-9
3.497063048848133E-6,545.1446747292072E-9,3.497063048848133E-6,533.0364082621562E-9
3.497063860553082E-6,556.6591137044529E-9,3.497063860553082E-6,544.2952945513848E-9
3.497064650530131E-6,567.9211582491456E-9,3.497064650530131E-6,555.3074961109052E-9
3.497065374380035E-6,578.3046067173907E-9,3.497065374380035E-6,565.4604190239693E-9
3.497066011631328E-6,587.4838260128322E-9,3.497066011631328E-6,574.4359712468058E-9
3.497066595930608E-6,595.9361694802040E-9,3.497066595930608E-6,582.7007530903064E-9
3.497067216864775E-6,604.9545911381103E-9,3.497067216864775E-6,591.5190599216426E-9
3.497067816449340E-6,613.6977853308928E-9,3.497067816449340E-6,600.0682576482282E-9
3.497068434649871E-6,622.7477879619079E-9,3.497068434649871E-6,608.9174668926930E-9
3.497069056308253E-6,631.8841094170689E-9,3.497069056308253E-6,617.8510919173086E-9
3.497069763197492E-6,642.3159023382218E-9,3.497069763197492E-6,628.0514542835046E-9
3.497070607508562E-6,654.8344636638849E-9,3.497070607508562E-6,640.2922991957756E-9
3.497071612679659E-6,669.8200102604648E-9,3.497071612679659E-6,654.9454323210250E-9
3.497072652500839E-6,685.4140249407966E-9,3.497072652500839E-6,670.1935609074947E-9
3.497073585872796E-6,699.4775942897924E-9,3.497073585872796E-6,683.9453574383647E-9
3.497074424668953E-6,712.1879315307250E-9,3.497074424668953E-6,696.3737456020057E-9
3.497075198849067E-6,723.9549173309762E-9,3.497075198849067E-6,707.8953132099601E-9
3.497075896314209E-6,734.3009691100100E-9,3.497075896314209E-6,718.3024556919706E-9
3.497076626418102E-6,745.4915774536206E-9,3.497076626418102E-6,728.9321338699820E-9
3.497077375382801E-6,757.0584147668027E-9,3.497077375382801E-6,740.2100096324702E-9
3.497078429654982E-6,773.3991262732254E-9,3.497078429654982E-6,756.1968954682984E-9
3.497079454203911E-6,789.3548968133620E-9,3.497079454203911E-6,771.8026296721926E-9
3.497080421597397E-6,804.4775865748905E-9,3.497080421597397E-6,786.5935849267635E-9
3.497081344176125E-6,818.9703687976578E-9,3.497081344176125E-6,800.7679722794772E-9
3.497082193901741E-6,832.3651567388711E-9,3.497082193901741E-6,813.8683208843262E-9
3.497082971820821E-6,844.6690942138075E-9,3.497082971820821E-6,825.9015891512044E-9
3.497083649145725E-6,855.4170258978184E-9,3.497083649145725E-6,836.4128831933864E-9
3.497084179894502E-6,863.8598437399893E-9,3.497084179894502E-6,844.6697365872236E-9
3.497084628291780E-6,871.0072971191122E-9,3.497084628291780E-6,851.6596972194911E-9
3.497085283140522E-6,881.4692519067919E-9,3.497085283140522E-6,861.8910276689081E-9
3.497085875258074E-6,890.9491115367446E-9,3.497085875258074E-6,871.1618804680360E-9
3.497086417381485E-6,899.6520518844755E-9,3.497086417381485E-6,879.6728021912383E-9
3.497087032839220E-6,909.5528992721481E-9,3.497087032839220E-6,889.3551877519443E-9
3.497087728589815E-6,920.7746077989056E-9,3.497087728589815E-6,900.3292099655100E-9
3.497088494457984E-6,933.1621592961689E-9,3.497088494457984E-6,912.4432636053368E-9
3.497089348268574E-6,947.0146310859415E-9,3.497089348268574E-6,925.9898090176442E-9
3.497090318665765E-6,962.8120984579331E-9,3.497090318665765E-6,941.4383061942731E-9
3.497091452865681E-6,981.3469228267971E-9,3.497091452865681E-6,959.5635961494426E-9
3.497092827286030E-6,1.003907337444097E-6,3.497092827286030E-6,981.6254250577722E-9
3.497094565504533E-6,1.032592091260602E-6,3.497094565504533E-6,1.009676143570188E-6
3.497096722469624E-6,1.068416934266283E-6,3.497096722469624E-6,1.044709049713743E-6
3.497098361234812E-6,1.095800450931352E-6,3.497098361234812E-6,1.071487221668443E-6
3.497100000000000E-6,1.123322337382467E-6,3.497100000000000E-6,1.098400732905857E-6
3.497101744522681E-6,1.152786672062784E-6,3.497101744522681E-6,1.127214717164618E-6
3.497104093553854E-6,1.192791659990320E-6,3.497104093553854E-6,1.166331368288295E-6
3.497106219670877E-6,1.228997834857077E-6,3.497106219670877E-6,1.201741706858447E-6
3.497110471904922E-6,1.302231971759416E-6,3.497110471904922E-6,1.273357766353781E-6
3.497115466016621E-6,1.389170833076535E-6,3.497115466016621E-6,1.358377943429264E-6
3.497120706485615E-6,1.481416601563810E-6,3.497120706485615E-6,1.448589562119202E-6
3.497126915637745E-6,1.591936994414426E-6,3.497126915637745E-6,1.556675314296145E-6
3.497134730168847E-6,1.732709985670252E-6,3.497134730168847E-6,1.694351531551242E-6
3.497145352997381E-6,1.926645648695852E-6,3.497145352997381E-6,1.884029570719089E-6
3.497157091586720E-6,2.143827961435466E-6,3.497157091586720E-6,2.096456898317838E-6
3.497169792836553E-6,2.381529188321607E-6,3.497169792836553E-6,2.328971192690682E-6
3.497183711237932E-6,2.644415814466103E-6,3.497183711237932E-6,2.586144571441414E-6
3.497199051359362E-6,2.936077768723298E-6,3.497199051359362E-6,2.871499651231364E-6
3.497216913400840E-6,3.275119232070181E-6,3.497216913400840E-6,3.203279535807697E-6
3.497238449975030E-6,3.685766857447030E-6,3.497238449975030E-6,3.605173329199461E-6
3.497240143409419E-6,3.717899660740168E-6,3.497240143409419E-6,3.636628000319268E-6
3.497240285342295E-6,3.656611170950790E-6,3.497240285342295E-6,3.577357835287097E-6
3.497240569208046E-6,3.765172379421536E-6,3.497240569208046E-6,3.682460638047081E-6
3.497240578078850E-6,2.905678696514455E-6,3.497240578078850E-6,2.807075791563684E-6
3.497240595820460E-6,4.249913864272125E-6,3.497240595820460E-6,4.179716489065300E-6
3.497240631303678E-6,3.722661426157506E-6,3.497240631303678E-6,3.641286945708200E-6
3.497240632412529E-6,3.722678280477954E-6,3.497240632412529E-6,3.641302861207328E-6
3.497240634630230E-6,3.722720992804029E-6,3.497240634630230E-6,3.641345247234545E-6
3.497240639065631E-6,3.722808047557995E-6,3.497240639065631E-6,3.641430193695369E-6
3.497240639204237E-6,3.722810737619171E-6,3.497240639204237E-6,3.641434274314444E-6
3.497240639481450E-6,3.722812245245622E-6,3.497240639481450E-6,3.641441541744477E-6
3.497240639550754E-6,3.722831680300373E-6,3.497240639550754E-6,3.641438389498376E-6
3.497240639689361E-6,3.722827795094961E-6,3.497240639689361E-6,3.641464648364410E-6
3.497240639724012E-6,3.722798142511103E-6,3.497240639966574E-6,3.641446438150331E-6
3.497240639793316E-6,3.722814268673822E-6,3.497240639974889E-6,3.641418866486842E-6
3.497240639931922E-6,3.722845817590649E-6,3.497240639982262E-6,3.641762429282734E-6
3.497240639938070E-6,3.722873314123527E-6,3.497240639997010E-6,3.641513432553354E-6
3.497240639950366E-6,3.722950529493286E-6,3.497240640026506E-6,3.641389909783057E-6
3.497240639953440E-6,3.722537158103028E-6,3.497240640085495E-6,3.641437631717933E-6
3.497240639954668E-6,3.722368058750323E-6,3.497240640203478E-6,3.641467839853185E-6
3.497240639955312E-6,3.720206860431461E-6,3.497240640439440E-6,3.641453948635885E-6
3.497240639955965E-6,3.723325212455683E-6,3.497240640911367E-6,3.641463939391900E-6
3.497240639956549E-6,3.719877613507728E-6,3.497240641855219E-6,3.641483443531361E-6
3.497240639956963E-6,3.720090527356110E-6,3.497240643742923E-6,3.641520648370076E-6
3.497240639957792E-6,3.722708007060007E-6,3.497240647518332E-6,3.641590764824441E-6
3.497240639959448E-6,3.724423173470345E-6,3.497240655069150E-6,3.641735322924584E-6
3.497240639962762E-6,3.722417514773335E-6,3.497240670170785E-6,3.642024038941710E-6
3.497240639968575E-6,3.722981787374972E-6,3.497240700374056E-6,3.642600636758009E-6
3.497240639975327E-6,3.722923748416587E-6,3.497240760780596E-6,3.643753860456233E-6
3.497240639985459E-6,3.722773409122872E-6,3.497240881593677E-6,3.646059902903476E-6
3.497240639990930E-6,3.722844586631254E-6,3.497241123219842E-6,3.650670062040600E-6
3.497240639996682E-6,3.722867572121112E-6,3.497241391633830E-6,3.655788374315941E-6
3.497240640002233E-6,3.722981615993900E-6,3.497241675157526E-6,3.661191327733658E-6
3.497240640007792E-6,3.723044058149267E-6,3.497241984689428E-6,3.667085731009424E-6
3.497240640008725E-6,3.723520632736417E-6,3.497242284394479E-6,3.672764855230777E-6
3.497240640009488E-6,3.721220581459090E-6,3.497242526574542E-6,3.677388358949427E-6
3.497240640010421E-6,3.725711310015746E-6,3.497242949375055E-6,3.685414464407305E-6
3.497240640012288E-6,3.722468732100403E-6,3.497243309229333E-6,3.692236810362160E-6
3.497240640016020E-6,3.722911640279972E-6,3.497243877696618E-6,3.703013075465249E-6
3.497240640023482E-6,3.722820779521824E-6,3.497244689742262E-6,3.718377932351670E-6
3.497240640038412E-6,3.722608177162627E-6,3.497244897220886E-6,3.722299233685118E-6
3.497240640068268E-6,3.722859855074384E-6,3.497245312178133E-6,3.730136393251536E-6
3.497240640127980E-6,3.722850791094077E-6,3.497245325145547E-6,3.730381151965796E-6
3.497240640247405E-6,3.722862996866261E-6,3.497245351080375E-6,3.730870783917435E-6
3.497240640486255E-6,3.722842866974739E-6,3.497245364047789E-6,3.731115411306179E-6
3.497240640963954E-6,3.722848876443240E-6,3.497245389982617E-6,3.731605045679750E-6
3.497240641919354E-6,3.722863599540210E-6,3.497245441852275E-6,3.732584085604539E-6
3.497240643830151E-6,3.722900293864035E-6,3.497245545591588E-6,3.734541615667905E-6
3.497240647651747E-6,3.722975622633749E-6,3.497245753070214E-6,3.738455535147750E-6
3.497240655294939E-6,3.723124202442150E-6,3.497246168027467E-6,3.746278142833649E-6
3.497240670581322E-6,3.723422320951733E-6,3.497246997941972E-6,3.761903387536297E-6
3.497240701154087E-6,3.724018573443928E-6,3.497248289227059E-6,3.786165393295231E-6
3.497240762299622E-6,3.725211122712681E-6,3.497250002618937E-6,3.818273534706576E-6
3.497240884590688E-6,3.727595618627197E-6,3.497251335346221E-6,3.843187316598358E-6
3.497241129172820E-6,3.732362767055562E-6,3.497252398965553E-6,3.863035706230417E-6
3.497241397919264E-6,3.737597871466514E-6,3.497253327290378E-6,3.880072672310731E-6
3.497241681809736E-6,3.743124441504241E-6,3.497254130478584E-6,3.894864329018419E-6
3.497241991909535E-6,3.749156970307285E-6,3.497255109205703E-6,3.912601117666283E-6
3.497242290992584E-6,3.754946089955326E-6,3.497256252355142E-6,3.934040337333253E-6
3.497242531516887E-6,3.759637022362502E-6,3.497257090080706E-6,3.949612247460974E-6
3.497242952169975E-6,3.767795046438216E-6,3.497257854224294E-6,3.963828816894039E-6
3.497243314878215E-6,3.774819622261758E-6,3.497258555232912E-6,3.976837749075561E-6
3.497243883411567E-6,3.785829565851652E-6,3.497259282266044E-6,3.990336929286334E-6
3.497244699366195E-6,3.801601225979755E-6,3.497260084652462E-6,4.005212887805199E-6
3.497244907147732E-6,3.805612878153605E-6,3.497260840274723E-6,4.019170444801049E-6
3.497245011038500E-6,3.807617991813539E-6,3.497261606029446E-6,4.033373293959774E-6
3.497245218820036E-6,3.811626851992085E-6,3.497262385765642E-6,4.047784527488951E-6
3.497245244792728E-6,3.812127885072470E-6,3.497263123144969E-6,4.061390358856906E-6
3.497245296738112E-6,3.813129650351457E-6,3.497264277555246E-6,4.082704988410307E-6
3.497245322710804E-6,3.813630605192825E-6,3.497265697290469E-6,4.108878668810604E-6
3.497245374656188E-6,3.814632249776599E-6,3.497266950624495E-6,4.131960862397162E-6
3.497245400628880E-6,3.815133135788281E-6,3.497267828126356E-6,4.147593797906168E-6
3.497245452574264E-6,3.816134605964702E-6,3.497268537390031E-6,4.160294215777059E-6
3.497245556465031E-6,3.818137280403579E-6,3.497269171457599E-6,4.172092005391752E-6
3.497245764246568E-6,3.822141354711028E-6,3.497269819594945E-6,4.184048835103449E-6
3.497246179809639E-6,3.830144128597683E-6,3.497270798908887E-6,4.202097513032162E-6
3.497247010935781E-6,3.846129160760073E-6,3.497271971050941E-6,4.223670447863922E-6
3.497248285330011E-6,3.870589536761642E-6,3.497273619989891E-6,4.253966344425378E-6
3.497250011550185E-6,3.903634441306388E-6,3.497275195825943E-6,4.282864031973158E-6
3.497251345666834E-6,3.929110337937143E-6,3.497276604558314E-6,4.308653598584559E-6
3.497252406396670E-6,3.949330071245833E-6,3.497278019493169E-6,4.334516763705847E-6
3.497253335203203E-6,3.966736364493994E-6,3.497279470327315E-6,4.360995984825036E-6
3.497254138041672E-6,3.981853352469698E-6,3.497281006404202E-6,4.388987975117433E-6
3.497255117427750E-6,3.999969897008699E-6,3.497282705909891E-6,4.419907789638741E-6
3.497256254799880E-6,4.021762150104871E-6,3.497284634034107E-6,4.454923974327677E-6
3.497257091947033E-6,4.037656477017406E-6,3.497286880276304E-6,4.495633736733258E-6
3.497257855390705E-6,4.052164549614594E-6,3.497289456309433E-6,4.542209630901904E-6
3.497258556327098E-6,4.065456148926019E-6,3.497292341844762E-6,4.594239635608275E-6
3.497259283743740E-6,4.079227210309514E-6,3.497295773529026E-6,4.655918690909226E-6
3.497260086370971E-6,4.094519080468766E-6,3.497300000000000E-6,4.731577325816185E-6
3.497260841985502E-6,4.108744724911603E-6,3.497306651447160E-6,4.849462668518075E-6
3.497261607800421E-6,4.123252982252361E-6,3.497316001983368E-6,5.013974695500286E-6
3.497262387392800E-6,4.137969188489066E-6,3.497323263672243E-6,5.140412495984722E-6
3.497263125181682E-6,4.151873016961689E-6,3.497337787049992E-6,5.387353016907210E-6
3.497264280184716E-6,4.173653737917569E-6,3.497356467184257E-6,5.699779075256813E-6
3.497265701030834E-6,4.200406373801822E-6,3.497378233592129E-6,6.049014005980838E-6
3.497266953267313E-6,4.223959643949083E-6,3.497400000000000E-6,6.380284571089569E-6
3.497267830315373E-6,4.239925851133236E-6,3.497434913076615E-6,6.847365495092236E-6
3.497268538811388E-6,4.252871169538263E-6,3.497446700377377E-6,6.998630916817171E-6
3.497269172870538E-6,4.264922199700543E-6,3.497470274978898E-6,7.285406553569975E-6
3.497269821345576E-6,4.277139612596099E-6,3.497517424181941E-6,7.778710807711072E-6
3.497270801992294E-6,4.295596920315371E-6,3.497611722588027E-6,8.393826951706528E-6
3.497271974816354E-6,4.317640735988249E-6,3.497757238166819E-6,8.361470179151257E-6
3.497273622913086E-6,4.348563510961880E-6,3.497885444277954E-6,7.325868949079679E-6
3.497275198697799E-6,4.378072601373505E-6,3.498038698075550E-6,5.453987385767492E-6
3.497276607503624E-6,4.404409482275132E-6,3.498199435133299E-6,2.949665225898967E-6
3.497278022470839E-6,4.430820211433320E-6,3.498520909248797E-6,-725.0126125164599E-9
3.497279473403861E-6,4.457860703155898E-6,3.498872524257811E-6,-1.243155103738197E-6
3.497281009732107E-6,4.486448127343866E-6,3.499061262128906E-6,-29.75057372016210E-9
3.497282709597182E-6,4.518026410858344E-6,3.499250000000000E-6,1.830771633284299E-6
3.497284638242686E-6,4.553789427835922E-6,3.499419607646135E-6,3.585495563589323E-6
3.497286885215612E-6,4.595368419781642E-6,3.499758822938405E-6,5.520767954410300E-6
3.497289461688086E-6,4.642929673195797E-6,3.499917631904315E-6,5.490067563357215E-6
3.497292348020597E-6,4.696063778989813E-6,3.500077477570642E-6,4.836952717340905E-6
3.497295781128512E-6,4.759057238842334E-6,3.500250000000000E-6,3.646142663577828E-6
3.497300000000000E-6,4.836152824385693E-6,3.500335850261651E-6,2.932855987171017E-6
3.497306651724424E-6,4.956481489795692E-6,3.500424575714156E-6,2.227043545642548E-6
3.497316003796036E-6,5.124406424840037E-6,3.500602026619168E-6,963.6991156115676E-9
3.497323264771445E-6,5.253384507226952E-6,3.500879394541729E-6,617.8120189095300E-9
3.497337786722262E-6,5.505316220757754E-6,3.501086712203867E-6,1.117867776333237E-6
3.497356467816824E-6,5.823966029219755E-6,3.501501347528140E-6,3.141465674295869E-6
3.497378233908411E-6,6.179942046584045E-6,3.502040566073096E-6,4.505368463206795E-6
3.497400000000000E-6,6.517442657642926E-6,3.502269364882581E-6,4.339955830147978E-6
3.497434912815469E-6,6.992527012905411E-6,3.502542655001224E-6,3.633401852782683E-6
3.497446699969249E-6,7.146337601767859E-6,3.502856824335074E-6,2.745244684827527E-6
3.497470274276808E-6,7.437677384371347E-6,3.503294163218557E-6,2.393918630889667E-6
3.497517422891927E-6,7.937861090932327E-6,3.503850792653980E-6,3.203496146216306E-6
3.497611720122165E-6,8.556659006408346E-6,3.504039668848437E-6,3.643807575425477E-6
3.497757224402552E-6,8.505906253327923E-6,3.504417421237349E-6,4.205743110150250E-6
3.497885396183875E-6,7.430295571577332E-6,3.505172926015176E-6,4.069976298966872E-6
3.498038580500314E-6,5.506435369050135E-6,3.506207765388987E-6,3.842394974067579E-6
3.498199040728753E-6,2.947780167146130E-6,3.507316956998055E-6,4.300172834923801E-6
3.498519961185630E-6,-774.1212619971100E-9,3.508959554612758E-6,4.859479318065103E-6
3.498868663322680E-6,-1.261629895904652E-6,3.511166831250504E-6,5.259764626954929E-6
3.499059331661340E-6,8.316941508863863E-9,3.514407481626409E-6,5.841773960974407E-6
3.499250000000000E-6,1.937680850166706E-6,3.519204299505906E-6,6.494666034616754E-6
3.499419138163668E-6,3.716804961198730E-6,3.524171974377930E-6,6.860823175775375E-6
3.499757414491004E-6,5.638071357063137E-6,3.529261313549611E-6,6.966515665805558E-6
3.499913200515567E-6,5.583199551998338E-6,3.534551378024358E-6,6.823533801768295E-6
3.500069122079290E-6,4.919772992328353E-6,3.540039857028880E-6,6.470589831887720E-6
3.500250000000000E-6,3.636387371164704E-6,3.545799706437711E-6,5.928708771360590E-6
3.500335850261651E-6,2.907777963348624E-6,3.551887418617107E-6,5.243101691814711E-6
3.500427444998632E-6,1.946831336557205E-6,3.558347401250762E-6,4.447208692861285E-6
3.500610634472594E-6,1.111111134589454E-6,3.565228036565219E-6,3.586863852559430E-6
3.500855885383296E-6,574.9005914147332E-9,3.572582273069394E-6,2.714771554203683E-6
3.501075036595793E-6,1.156811849881482E-6,3.580473241247902E-6,1.873631578268422E-6
3.501402321050035E-6,2.862161248252803E-6,3.588978727024579E-6,1.111066039835543E-6
3.501846957640863E-6,4.479635704939074E-6,3.598195033401368E-6,466.1985073257334E-9
3.502225075459047E-6,4.411239918415894E-6,3.608242672581238E-6,-30.13563259864605E-9
3.502500000000000E-6,3.681435183074296E-6,3.619274334630932E-6,-360.3955091556705E-9
3.502750000000000E-6,2.911980151787848E-6,3.631486669916786E-6,-520.9549784985915E-9
3.503065627241127E-6,2.401963716462978E-6,3.645138106150937E-6,-530.7886568111551E-9
3.503672773741883E-6,3.026134289095541E-6,3.660576582149260E-6,-424.6754021866598E-9
3.503940548589931E-6,3.652829186527464E-6,3.678283951973405E-6,-255.4279952563524E-9
3.504251358981226E-6,4.195498215399993E-6,3.698950764662385E-6,-83.86012129144913E-9
3.504872979763815E-6,4.219229256051817E-6,3.723608546201050E-6,35.89424598306372E-9
3.505783350034725E-6,3.831089361417106E-6,3.753880068170370E-6,76.08498556418716E-9
3.506819871734412E-6,4.169171359464108E-6,3.792494214568471E-6,49.13619407531090E-9
3.508246543575362E-6,4.774353655948212E-6,3.844471776229016E-6,3.509422897094769E-9
3.510292864737235E-6,5.185714930790223E-6,3.907977977969825E-6,-13.39436027395620E-9
3.513069791108677E-6,5.698056011143107E-6,3.919250000000000E-6,-11.99931531556376E-9
3.517332645435041E-6,6.369683103883947E-6,3.941794044060349E-6,-7.379357274555042E-9
3.522241467981710E-6,6.834154339458709E-6,3.986882132181046E-6,-714.4756588186114E-12
3.527274291037472E-6,7.025371848449151E-6,4.077058308422442E-6,2.424017611087670E-9
3.532488268314021E-6,6.954808043688320E-6,4.161500000000000E-6,1.010590788844472E-9
3.537896858259609E-6,6.653973724995571E-6,4.330383383155116E-6,164.6139732236536E-12
3.543548020047395E-6,6.154122570432108E-6,4.530383383155116E-6,106.1148916038935E-12
3.549505443366673E-6,5.493371653441985E-6,4.730383383155115E-6,144.9318541338132E-12
3.555817104793963E-6,4.711137413000642E-6,4.930383383155115E-6,140.0796455011550E-12
3.562529973757475E-6,3.854021531121968E-6,5.130383383155116E-6,133.3725761407249E-12
3.569694982758787E-6,2.969536734073638E-6,5.330383383155116E-6,131.2426982921891E-12
3.577370971168542E-6,2.107576629191638E-6,5.530383383155114E-6,129.4905077777168E-12
3.585629666588046E-6,1.315051156451186E-6,5.730383383155115E-6,127.3680524751622E-12
3.594559657079818E-6,633.3611195649554E-9,5.930383383155113E-6,125.2271900399940E-12
3.604271324988172E-6,95.57667761920880E-9,6.130383383155113E-6,123.1578334072475E-12
3.614903812453130E-6,-278.0669605235018E-9,6.330383383155114E-6,121.1358138354431E-12
3.626635139468762E-6,-481.2753396999008E-9,6.530383383155113E-6,119.1516651044963E-12
3.639697355577788E-6,-527.9969189925490E-9,6.730383383155113E-6,117.2060923631159E-12
3.654399857559714E-6,-449.7198176716917E-9,6.930383383155113E-6,115.2990745973553E-12
3.671166244420079E-6,-299.3128835637544E-9,7.130383383155114E-6,113.4297853783165E-12
3.690595276055064E-6,-129.2639975475959E-9,7.330383383155111E-6,111.5974060728946E-12
3.713565959131443E-6,4.529206310237180E-9,7.530383383155113E-6,109.8012404109939E-12
3.741432022737979E-6,67.17242740100649E-9,7.730383383155113E-6,108.0405058745521E-12
3.776407222891742E-6,58.55364724402412E-9,7.865191691577555E-6,106.8733767117437E-12
3.822411904785544E-6,16.00966483972382E-9,8.000000000000000E-6,105.7219128519302E-12
3.881735344081501E-6,-10.67035649849675E-9,8.199999999999999E-6,104.1630893117466E-12
3.919250000000000E-6,-10.27960041167848E-9,8.399999999999999E-6,102.5411493145166E-12
3.994279311836996E-6,-2.538859599672630E-9,8.599999999999999E-6,100.9245441218774E-12
4.144337935510990E-6,1.405402367037013E-9,8.799999999999999E-6,99.34035966169762E-12
4.161500000000000E-6,1.033874878017387E-9,8.999999999999997E-6,97.78882722376454E-12
4.195824128978020E-6,479.3612330125614E-12,9.199999999999997E-6,96.26781925568010E-12
4.264472386934060E-6,26.75876079010997E-12,9.399999999999996E-6,94.77665489167655E-12
4.401768902846139E-6,47.10701303383542E-12,9.599999999999998E-6,93.31492084990026E-12
4.601768902846140E-6,147.0444461841010E-12,9.799999999999998E-6,91.88202368688448E-12
4.801768902846140E-6,142.0488700021544E-12,9.999999999999999E-6,90.47746297036027E-12
5.001768902846140E-6,131.3602009771457E-12,10.20000000000000E-6,89.10062030549249E-12
5.201768902846139E-6,129.2370381971769E-12,10.40000000000000E-6,87.75094525558726E-12
5.401768902846137E-6,127.8456245638821E-12,10.60000000000000E-6,86.42790599464525E-12
5.601768902846137E-6,125.7688867138333E-12,10.80000000000000E-6,85.13098744881797E-12
5.801768902846138E-6,123.6327818590118E-12,11.00000000000000E-6,83.85965073345606E-12
6.001768902846138E-6,121.5921411451653E-12,11.20000000000000E-6,82.61342850636151E-12
6.201768902846137E-6,119.6028142123941E-12,11.40000000000000E-6,81.39178346921672E-12
6.401768902846137E-6,117.6490482288946E-12,11.60000000000000E-6,80.19429936610200E-12
6.601768902846138E-6,115.7328025818544E-12,11.80000000000000E-6,79.02044868803369E-12
6.801768902846138E-6,113.8546936653595E-12,12.00000000000000E-6,77.86976298025222E-12
7.001768902846137E-6,112.0137762600795E-12,12.20000000000000E-6,76.74178459948636E-12
7.201768902846135E-6,110.2091819867686E-12,12.40000000000000E-6,75.63607364316654E-12
7.401768902846135E-6,108.4402309914244E-12,12.60000000000000E-6,74.55219185949642E-12
7.601768902846135E-6,106.7062237700006E-12,12.79999999999999E-6,73.48971600774385E-12
7.801768902846138E-6,105.0064331786083E-12,13.00000000000000E-6,72.44819147918804E-12
8.000000000000000E-6,103.3548017568347E-12,13.20000000000000E-6,71.42724948285978E-12
8.199999999999999E-6,101.8394363610822E-12,13.40000000000000E-6,70.42644622056575E-12
8.399999999999999E-6,100.2622947396261E-12,13.60000000000000E-6,69.44536884603418E-12
8.599999999999999E-6,98.69056743440407E-12,13.79999999999999E-6,68.48371683434986E-12
8.799999999999999E-6,97.15033836372858E-12,13.99999999999999E-6,67.54098698665088E-12
8.999999999999997E-6,95.64181512045846E-12,14.19999999999999E-6,66.61689143123688E-12
9.199999999999997E-6,94.16295460333811E-12,14.39999999999999E-6,65.71108941031329E-12
9.399999999999996E-6,92.71317282600006E-12,14.59999999999999E-6,64.82314144390132E-12
9.599999999999998E-6,91.29201297412718E-12,14.79999999999999E-6,63.95267595701538E-12
9.799999999999998E-6,89.89887412107319E-12,14.99999999999999E-6,63.09941468516746E-12
9.999999999999999E-6,88.53326002529711E-12,15.19999999999999E-6,62.26302031919832E-12
10.20000000000000E-6,87.19459354146372E-12,15.39999999999999E-6,61.44312239549805E-12
10.40000000000000E-6,85.88234749149868E-12,15.60000000000000E-6,60.63942161675086E-12
10.60000000000000E-6,84.59602917296048E-12,15.80000000000000E-6,59.85154573638514E-12
10.80000000000000E-6,83.33508887777627E-12,16.00000000000000E-6,59.07925734387266E-12
11.00000000000000E-6,82.09904583699138E-12,16.20000000000000E-6,58.32220339772157E-12
11.20000000000000E-6,80.88743040406928E-12,16.40000000000000E-6,57.58007684602016E-12
11.40000000000000E-6,79.69975366737308E-12,16.60000000000000E-6,56.85265475250068E-12
11.60000000000000E-6,78.53544714955233E-12,16.80000000000000E-6,56.13952110431620E-12
11.80000000000000E-6,77.39414688488491E-12,17.00000000000001E-6,55.44048561235420E-12
12.00000000000000E-6,76.27542444454568E-12,17.20000000000001E-6,54.75528185700226E-12
12.20000000000000E-6,75.17873656115096E-12,17.40000000000001E-6,54.08357526179928E-12
12.40000000000000E-6,74.10372781762480E-12,17.60000000000001E-6,53.42516140707169E-12
12.60000000000000E-6,73.04993229964014E-12,17.80000000000001E-6,52.77974684850530E-12
12.79999999999999E-6,72.01695366789692E-12,18.00000000000001E-6,52.14699650340838E-12
13.00000000000000E-6,71.00433656689184E-12,18.20000000000001E-6,51.52683602385546E-12
13.20000000000000E-6,70.01176544171440E-12,18.40000000000002E-6,50.91886748788694E-12
13.40000000000000E-6,69.03876145492832E-12,18.60000000000002E-6,50.32288247546386E-12
13.60000000000000E-6,68.08496966694374E-12,18.80000000000002E-6,49.73868641333800E-12
13.79999999999999E-6,67.14997215620097E-12,19.00000000000002E-6,49.16603910046180E-12
13.99999999999999E-6,66.23343627050842E-12,19.20000000000002E-6,48.60466430605150E-12
14.19999999999999E-6,65.33502949771426E-12,19.40000000000002E-6,48.05438823309794E-12
14.39999999999999E-6,64.45436323256638E-12,19.60000000000002E-6,47.51495177988296E-12
14.59999999999999E-6,63.59104550864688E-12,19.80000000000003E-6,46.98615453391254E-12
14.79999999999999E-6,62.74481689315608E-12,20.00000000000003E-6,46.46780749416166E-12
14.99999999999999E-6,61.91527778488626E-12, , 
15.19999999999999E-6,61.10208930787011E-12, , 
15.39999999999999E-6,60.30498098588720E-12, , 
15.60000000000000E-6,59.52359986735270E-12, , 
15.80000000000000E-6,58.75766044521602E-12, , 
16.00000000000000E-6,58.00683078723360E-12, , 
16.20000000000000E-6,57.27080546037532E-12, , 
16.40000000000000E-6,56.54929564101156E-12, , 
16.60000000000000E-6,55.84210068732824E-12, , 
16.80000000000000E-6,55.14882307951732E-12, , 
17.00000000000001E-6,54.46918334244944E-12, , 
17.20000000000001E-6,53.80305852418452E-12, , 
17.40000000000001E-6,53.15003734570626E-12, , 
17.60000000000001E-6,52.50990549244876E-12, , 
17.80000000000001E-6,51.88241752370710E-12, , 
18.00000000000001E-6,51.26731109596836E-12, , 
18.20000000000001E-6,50.66430820589700E-12, , 
18.40000000000002E-6,50.07327670434236E-12, , 
18.60000000000002E-6,49.49391322499970E-12, , 
18.80000000000002E-6,48.92595054654118E-12, , 
19.00000000000002E-6,48.36921750144022E-12, , 
19.20000000000002E-6,47.82346969293164E-12, , 
19.40000000000002E-6,47.28849414867256E-12, , 
19.60000000000002E-6,46.76408605058208E-12, , 
19.80000000000003E-6,46.25000894236034E-12, , 
20.00000000000003E-6,45.74612410560492E-12, , 